{
	"annotations": {
		"priority": "Int",
		"level": "level",
		"constraints": "tile"
	},
	"tileSize": 32,
	"tiles": [
		{
			"annotations": {
				"priority": {
					"type": "Int",
					"value": "3"
				},
				"level": {
					"type": "level",
					"value": "LWall"
				},
				"constraints": {
					"type": "tile",
					"value": {
						"bottom_right": {
							"type": "quarterTile",
							"value": {
								"biome": {
									"type": "biome",
									"value": "Empty"
								}
							}
						},
						"top_right": {
							"type": "quarterTile",
							"value": {
								"biome": {
									"type": "biome",
									"value": "Wall"
								}
							}
						},
						"top_left": {
							"type": "quarterTile",
							"value": {
								"biome": {
									"type": "biome",
									"value": "Wall"
								}
							}
						},
						"bottom_left": {
							"type": "quarterTile",
							"value": {
								"biome": {
									"type": "biome",
									"value": "Wall"
								}
							}
						}
					}
				}
			},
			"x": 0,
			"y": 0
		},
		{
			"annotations": {
				"priority": {
					"type": "Int",
					"value": "3"
				},
				"level": {
					"type": "level",
					"value": "LWall"
				},
				"constraints": {
					"type": "tile",
					"value": {
						"bottom_right": {
							"type": "quarterTile",
							"value": {
								"biome": {
									"type": "biome",
									"value": "Wall"
								}
							}
						},
						"top_right": {
							"type": "quarterTile",
							"value": {
								"biome": {
									"type": "biome",
									"value": "Wall"
								}
							}
						},
						"top_left": {
							"type": "quarterTile",
							"value": {
								"biome": {
									"type": "biome",
									"value": "Wall"
								}
							}
						},
						"bottom_left": {
							"type": "quarterTile",
							"value": {
								"biome": {
									"type": "biome",
									"value": "Empty"
								}
							}
						}
					}
				}
			},
			"x": 1,
			"y": 0
		},
		{
			"annotations": {
				"priority": {
					"type": "Int",
					"value": "1"
				},
				"level": {
					"type": "level",
					"value": "LWall"
				},
				"constraints": {
					"type": "tile",
					"value": {
						"bottom_right": {
							"type": "quarterTile",
							"value": {
								"biome": {
									"type": "biome",
									"value": "Wall"
								}
							}
						},
						"top_right": {
							"type": "quarterTile",
							"value": {
								"biome": {
									"type": "biome",
									"value": "Empty"
								}
							}
						},
						"top_left": {
							"type": "quarterTile",
							"value": {
								"biome": {
									"type": "biome",
									"value": "Empty"
								}
							}
						},
						"bottom_left": {
							"type": "quarterTile",
							"value": {
								"biome": {
									"type": "biome",
									"value": "Empty"
								}
							}
						}
					}
				}
			},
			"x": 2,
			"y": 0
		},
		{
			"annotations": {
				"priority": {
					"type": "Int",
					"value": "2"
				},
				"level": {
					"type": "level",
					"value": "LWall"
				},
				"constraints": {
					"type": "tile",
					"value": {
						"bottom_right": {
							"type": "quarterTile",
							"value": {
								"biome": {
									"type": "biome",
									"value": "Wall"
								}
							}
						},
						"top_right": {
							"type": "quarterTile",
							"value": {
								"biome": {
									"type": "biome",
									"value": "Empty"
								}
							}
						},
						"top_left": {
							"type": "quarterTile",
							"value": {
								"biome": {
									"type": "biome",
									"value": "Empty"
								}
							}
						},
						"bottom_left": {
							"type": "quarterTile",
							"value": {
								"biome": {
									"type": "biome",
									"value": "Wall"
								}
							}
						}
					}
				}
			},
			"x": 3,
			"y": 0
		},
		{
			"annotations": {
				"priority": {
					"type": "Int",
					"value": "1"
				},
				"level": {
					"type": "level",
					"value": "LWall"
				},
				"constraints": {
					"type": "tile",
					"value": {
						"bottom_right": {
							"type": "quarterTile",
							"value": {
								"biome": {
									"type": "biome",
									"value": "Empty"
								}
							}
						},
						"top_right": {
							"type": "quarterTile",
							"value": {
								"biome": {
									"type": "biome",
									"value": "Empty"
								}
							}
						},
						"top_left": {
							"type": "quarterTile",
							"value": {
								"biome": {
									"type": "biome",
									"value": "Empty"
								}
							}
						},
						"bottom_left": {
							"type": "quarterTile",
							"value": {
								"biome": {
									"type": "biome",
									"value": "Wall"
								}
							}
						}
					}
				}
			},
			"x": 4,
			"y": 0
		},
		{
			"annotations": {
				"priority": {
					"type": "Int",
					"value": "3"
				},
				"level": {
					"type": "level",
					"value": "LGrass"
				},
				"constraints": {
					"type": "tile",
					"value": {
						"bottom_right": {
							"type": "quarterTile",
							"value": {
								"biome": {
									"type": "biome",
									"value": "Empty"
								}
							}
						},
						"top_right": {
							"type": "quarterTile",
							"value": {
								"biome": {
									"type": "biome",
									"value": "Grass"
								}
							}
						},
						"top_left": {
							"type": "quarterTile",
							"value": {
								"biome": {
									"type": "biome",
									"value": "Grass"
								}
							}
						},
						"bottom_left": {
							"type": "quarterTile",
							"value": {
								"biome": {
									"type": "biome",
									"value": "Grass"
								}
							}
						}
					}
				}
			},
			"x": 5,
			"y": 0
		},
		{
			"annotations": {
				"priority": {
					"type": "Int",
					"value": "3"
				},
				"level": {
					"type": "level",
					"value": "LGrass"
				},
				"constraints": {
					"type": "tile",
					"value": {
						"bottom_right": {
							"type": "quarterTile",
							"value": {
								"biome": {
									"type": "biome",
									"value": "Grass"
								}
							}
						},
						"top_right": {
							"type": "quarterTile",
							"value": {
								"biome": {
									"type": "biome",
									"value": "Grass"
								}
							}
						},
						"top_left": {
							"type": "quarterTile",
							"value": {
								"biome": {
									"type": "biome",
									"value": "Grass"
								}
							}
						},
						"bottom_left": {
							"type": "quarterTile",
							"value": {
								"biome": {
									"type": "biome",
									"value": "Empty"
								}
							}
						}
					}
				}
			},
			"x": 6,
			"y": 0
		},
		{
			"annotations": {
				"priority": {
					"type": "Int",
					"value": "1"
				},
				"level": {
					"type": "level",
					"value": "LGrass"
				},
				"constraints": {
					"type": "tile",
					"value": {
						"bottom_right": {
							"type": "quarterTile",
							"value": {
								"biome": {
									"type": "biome",
									"value": "Grass"
								}
							}
						},
						"top_right": {
							"type": "quarterTile",
							"value": {
								"biome": {
									"type": "biome",
									"value": "Empty"
								}
							}
						},
						"top_left": {
							"type": "quarterTile",
							"value": {
								"biome": {
									"type": "biome",
									"value": "Empty"
								}
							}
						},
						"bottom_left": {
							"type": "quarterTile",
							"value": {
								"biome": {
									"type": "biome",
									"value": "Empty"
								}
							}
						}
					}
				}
			},
			"x": 7,
			"y": 0
		},
		{
			"annotations": {
				"priority": {
					"type": "Int",
					"value": "2"
				},
				"level": {
					"type": "level",
					"value": "LGrass"
				},
				"constraints": {
					"type": "tile",
					"value": {
						"bottom_right": {
							"type": "quarterTile",
							"value": {
								"biome": {
									"type": "biome",
									"value": "Grass"
								}
							}
						},
						"top_right": {
							"type": "quarterTile",
							"value": {
								"biome": {
									"type": "biome",
									"value": "Empty"
								}
							}
						},
						"top_left": {
							"type": "quarterTile",
							"value": {
								"biome": {
									"type": "biome",
									"value": "Empty"
								}
							}
						},
						"bottom_left": {
							"type": "quarterTile",
							"value": {
								"biome": {
									"type": "biome",
									"value": "Grass"
								}
							}
						}
					}
				}
			},
			"x": 8,
			"y": 0
		},
		{
			"annotations": {
				"priority": {
					"type": "Int",
					"value": "1"
				},
				"level": {
					"type": "level",
					"value": "LGrass"
				},
				"constraints": {
					"type": "tile",
					"value": {
						"bottom_right": {
							"type": "quarterTile",
							"value": {
								"biome": {
									"type": "biome",
									"value": "Empty"
								}
							}
						},
						"top_right": {
							"type": "quarterTile",
							"value": {
								"biome": {
									"type": "biome",
									"value": "Empty"
								}
							}
						},
						"top_left": {
							"type": "quarterTile",
							"value": {
								"biome": {
									"type": "biome",
									"value": "Empty"
								}
							}
						},
						"bottom_left": {
							"type": "quarterTile",
							"value": {
								"biome": {
									"type": "biome",
									"value": "Grass"
								}
							}
						}
					}
				}
			},
			"x": 9,
			"y": 0
		},
		{
			"annotations": {
				"constraints": {
					"type": "tile",
					"value": {
						"bottom_right": {
							"type": "quarterTile",
							"value": {}
						},
						"top_right": {
							"type": "quarterTile",
							"value": {}
						},
						"top_left": {
							"type": "quarterTile",
							"value": {}
						},
						"bottom_left": {
							"type": "quarterTile",
							"value": {}
						}
					}
				}
			},
			"x": 10,
			"y": 0
		},
		{
			"annotations": {
				"constraints": {
					"type": "tile",
					"value": {
						"bottom_right": {
							"type": "quarterTile",
							"value": {}
						},
						"top_right": {
							"type": "quarterTile",
							"value": {}
						},
						"top_left": {
							"type": "quarterTile",
							"value": {}
						},
						"bottom_left": {
							"type": "quarterTile",
							"value": {}
						}
					}
				}
			},
			"x": 11,
			"y": 0
		},
		{
			"annotations": {
				"constraints": {
					"type": "tile",
					"value": {
						"bottom_right": {
							"type": "quarterTile",
							"value": {}
						},
						"top_right": {
							"type": "quarterTile",
							"value": {}
						},
						"top_left": {
							"type": "quarterTile",
							"value": {}
						},
						"bottom_left": {
							"type": "quarterTile",
							"value": {}
						}
					}
				}
			},
			"x": 12,
			"y": 0
		},
		{
			"annotations": {
				"constraints": {
					"type": "tile",
					"value": {
						"bottom_right": {
							"type": "quarterTile",
							"value": {}
						},
						"top_right": {
							"type": "quarterTile",
							"value": {}
						},
						"top_left": {
							"type": "quarterTile",
							"value": {}
						},
						"bottom_left": {
							"type": "quarterTile",
							"value": {}
						}
					}
				}
			},
			"x": 13,
			"y": 0
		},
		{
			"annotations": {
				"constraints": {
					"type": "tile",
					"value": {
						"bottom_right": {
							"type": "quarterTile",
							"value": {}
						},
						"top_right": {
							"type": "quarterTile",
							"value": {}
						},
						"top_left": {
							"type": "quarterTile",
							"value": {}
						},
						"bottom_left": {
							"type": "quarterTile",
							"value": {}
						}
					}
				}
			},
			"x": 14,
			"y": 0
		},
		{
			"annotations": {
				"constraints": {
					"type": "tile",
					"value": {
						"bottom_right": {
							"type": "quarterTile",
							"value": {}
						},
						"top_right": {
							"type": "quarterTile",
							"value": {}
						},
						"top_left": {
							"type": "quarterTile",
							"value": {}
						},
						"bottom_left": {
							"type": "quarterTile",
							"value": {}
						}
					}
				}
			},
			"x": 15,
			"y": 0
		},
		{
			"annotations": {
				"priority": {
					"type": "Int",
					"value": "3"
				},
				"level": {
					"type": "level",
					"value": "LWall"
				},
				"constraints": {
					"type": "tile",
					"value": {
						"bottom_right": {
							"type": "quarterTile",
							"value": {
								"biome": {
									"type": "biome",
									"value": "Wall"
								}
							}
						},
						"top_right": {
							"type": "quarterTile",
							"value": {
								"biome": {
									"type": "biome",
									"value": "Empty"
								}
							}
						},
						"top_left": {
							"type": "quarterTile",
							"value": {
								"biome": {
									"type": "biome",
									"value": "Wall"
								}
							}
						},
						"bottom_left": {
							"type": "quarterTile",
							"value": {
								"biome": {
									"type": "biome",
									"value": "Wall"
								}
							}
						}
					}
				}
			},
			"x": 0,
			"y": 1
		},
		{
			"annotations": {
				"priority": {
					"type": "Int",
					"value": "3"
				},
				"level": {
					"type": "level",
					"value": "LWall"
				},
				"constraints": {
					"type": "tile",
					"value": {
						"bottom_right": {
							"type": "quarterTile",
							"value": {
								"biome": {
									"type": "biome",
									"value": "Wall"
								}
							}
						},
						"top_right": {
							"type": "quarterTile",
							"value": {
								"biome": {
									"type": "biome",
									"value": "Wall"
								}
							}
						},
						"top_left": {
							"type": "quarterTile",
							"value": {
								"biome": {
									"type": "biome",
									"value": "Empty"
								}
							}
						},
						"bottom_left": {
							"type": "quarterTile",
							"value": {
								"biome": {
									"type": "biome",
									"value": "Wall"
								}
							}
						}
					}
				}
			},
			"x": 1,
			"y": 1
		},
		{
			"annotations": {
				"priority": {
					"type": "Int",
					"value": "2"
				},
				"level": {
					"type": "level",
					"value": "LWall"
				},
				"constraints": {
					"type": "tile",
					"value": {
						"bottom_right": {
							"type": "quarterTile",
							"value": {
								"biome": {
									"type": "biome",
									"value": "Wall"
								}
							}
						},
						"top_right": {
							"type": "quarterTile",
							"value": {
								"biome": {
									"type": "biome",
									"value": "Wall"
								}
							}
						},
						"top_left": {
							"type": "quarterTile",
							"value": {
								"biome": {
									"type": "biome",
									"value": "Empty"
								}
							}
						},
						"bottom_left": {
							"type": "quarterTile",
							"value": {
								"biome": {
									"type": "biome",
									"value": "Empty"
								}
							}
						}
					}
				}
			},
			"x": 2,
			"y": 1
		},
		{
			"annotations": {
				"priority": {
					"type": "Int",
					"value": "4"
				},
				"level": {
					"type": "level",
					"value": "LWall"
				},
				"constraints": {
					"type": "tile",
					"value": {
						"bottom_right": {
							"type": "quarterTile",
							"value": {
								"biome": {
									"type": "biome",
									"value": "Wall"
								}
							}
						},
						"top_right": {
							"type": "quarterTile",
							"value": {
								"biome": {
									"type": "biome",
									"value": "Wall"
								}
							}
						},
						"top_left": {
							"type": "quarterTile",
							"value": {
								"biome": {
									"type": "biome",
									"value": "Wall"
								}
							}
						},
						"bottom_left": {
							"type": "quarterTile",
							"value": {
								"biome": {
									"type": "biome",
									"value": "Wall"
								}
							}
						}
					}
				}
			},
			"x": 3,
			"y": 1
		},
		{
			"annotations": {
				"priority": {
					"type": "Int",
					"value": "2"
				},
				"level": {
					"type": "level",
					"value": "LWall"
				},
				"constraints": {
					"type": "tile",
					"value": {
						"bottom_right": {
							"type": "quarterTile",
							"value": {
								"biome": {
									"type": "biome",
									"value": "Empty"
								}
							}
						},
						"top_right": {
							"type": "quarterTile",
							"value": {
								"biome": {
									"type": "biome",
									"value": "Empty"
								}
							}
						},
						"top_left": {
							"type": "quarterTile",
							"value": {
								"biome": {
									"type": "biome",
									"value": "Wall"
								}
							}
						},
						"bottom_left": {
							"type": "quarterTile",
							"value": {
								"biome": {
									"type": "biome",
									"value": "Wall"
								}
							}
						}
					}
				}
			},
			"x": 4,
			"y": 1
		},
		{
			"annotations": {
				"priority": {
					"type": "Int",
					"value": "3"
				},
				"level": {
					"type": "level",
					"value": "LGrass"
				},
				"constraints": {
					"type": "tile",
					"value": {
						"bottom_right": {
							"type": "quarterTile",
							"value": {
								"biome": {
									"type": "biome",
									"value": "Grass"
								}
							}
						},
						"top_right": {
							"type": "quarterTile",
							"value": {
								"biome": {
									"type": "biome",
									"value": "Empty"
								}
							}
						},
						"top_left": {
							"type": "quarterTile",
							"value": {
								"biome": {
									"type": "biome",
									"value": "Grass"
								}
							}
						},
						"bottom_left": {
							"type": "quarterTile",
							"value": {
								"biome": {
									"type": "biome",
									"value": "Grass"
								}
							}
						}
					}
				}
			},
			"x": 5,
			"y": 1
		},
		{
			"annotations": {
				"priority": {
					"type": "Int",
					"value": "3"
				},
				"level": {
					"type": "level",
					"value": "LGrass"
				},
				"constraints": {
					"type": "tile",
					"value": {
						"bottom_right": {
							"type": "quarterTile",
							"value": {
								"biome": {
									"type": "biome",
									"value": "Grass"
								}
							}
						},
						"top_right": {
							"type": "quarterTile",
							"value": {
								"biome": {
									"type": "biome",
									"value": "Grass"
								}
							}
						},
						"top_left": {
							"type": "quarterTile",
							"value": {
								"biome": {
									"type": "biome",
									"value": "Empty"
								}
							}
						},
						"bottom_left": {
							"type": "quarterTile",
							"value": {
								"biome": {
									"type": "biome",
									"value": "Grass"
								}
							}
						}
					}
				}
			},
			"x": 6,
			"y": 1
		},
		{
			"annotations": {
				"priority": {
					"type": "Int",
					"value": "2"
				},
				"level": {
					"type": "level",
					"value": "LGrass"
				},
				"constraints": {
					"type": "tile",
					"value": {
						"bottom_right": {
							"type": "quarterTile",
							"value": {
								"biome": {
									"type": "biome",
									"value": "Grass"
								}
							}
						},
						"top_right": {
							"type": "quarterTile",
							"value": {
								"biome": {
									"type": "biome",
									"value": "Grass"
								}
							}
						},
						"top_left": {
							"type": "quarterTile",
							"value": {
								"biome": {
									"type": "biome",
									"value": "Empty"
								}
							}
						},
						"bottom_left": {
							"type": "quarterTile",
							"value": {
								"biome": {
									"type": "biome",
									"value": "Empty"
								}
							}
						}
					}
				}
			},
			"x": 7,
			"y": 1
		},
		{
			"annotations": {
				"priority": {
					"type": "Int",
					"value": "4"
				},
				"level": {
					"type": "level",
					"value": "LGrass"
				},
				"constraints": {
					"type": "tile",
					"value": {
						"bottom_right": {
							"type": "quarterTile",
							"value": {
								"biome": {
									"type": "biome",
									"value": "Grass"
								}
							}
						},
						"top_right": {
							"type": "quarterTile",
							"value": {
								"biome": {
									"type": "biome",
									"value": "Grass"
								}
							}
						},
						"top_left": {
							"type": "quarterTile",
							"value": {
								"biome": {
									"type": "biome",
									"value": "Grass"
								}
							}
						},
						"bottom_left": {
							"type": "quarterTile",
							"value": {
								"biome": {
									"type": "biome",
									"value": "Grass"
								}
							}
						}
					}
				}
			},
			"x": 8,
			"y": 1
		},
		{
			"annotations": {
				"priority": {
					"type": "Int",
					"value": "2"
				},
				"level": {
					"type": "level",
					"value": "LGrass"
				},
				"constraints": {
					"type": "tile",
					"value": {
						"bottom_right": {
							"type": "quarterTile",
							"value": {
								"biome": {
									"type": "biome",
									"value": "Empty"
								}
							}
						},
						"top_right": {
							"type": "quarterTile",
							"value": {
								"biome": {
									"type": "biome",
									"value": "Empty"
								}
							}
						},
						"top_left": {
							"type": "quarterTile",
							"value": {
								"biome": {
									"type": "biome",
									"value": "Grass"
								}
							}
						},
						"bottom_left": {
							"type": "quarterTile",
							"value": {
								"biome": {
									"type": "biome",
									"value": "Grass"
								}
							}
						}
					}
				}
			},
			"x": 9,
			"y": 1
		},
		{
			"annotations": {
				"constraints": {
					"type": "tile",
					"value": {
						"bottom_right": {
							"type": "quarterTile",
							"value": {}
						},
						"top_right": {
							"type": "quarterTile",
							"value": {}
						},
						"top_left": {
							"type": "quarterTile",
							"value": {}
						},
						"bottom_left": {
							"type": "quarterTile",
							"value": {}
						}
					}
				}
			},
			"x": 10,
			"y": 1
		},
		{
			"annotations": {
				"constraints": {
					"type": "tile",
					"value": {
						"bottom_right": {
							"type": "quarterTile",
							"value": {}
						},
						"top_right": {
							"type": "quarterTile",
							"value": {}
						},
						"top_left": {
							"type": "quarterTile",
							"value": {}
						},
						"bottom_left": {
							"type": "quarterTile",
							"value": {}
						}
					}
				}
			},
			"x": 11,
			"y": 1
		},
		{
			"annotations": {
				"constraints": {
					"type": "tile",
					"value": {
						"bottom_right": {
							"type": "quarterTile",
							"value": {}
						},
						"top_right": {
							"type": "quarterTile",
							"value": {}
						},
						"top_left": {
							"type": "quarterTile",
							"value": {}
						},
						"bottom_left": {
							"type": "quarterTile",
							"value": {}
						}
					}
				}
			},
			"x": 12,
			"y": 1
		},
		{
			"annotations": {
				"constraints": {
					"type": "tile",
					"value": {
						"bottom_right": {
							"type": "quarterTile",
							"value": {}
						},
						"top_right": {
							"type": "quarterTile",
							"value": {}
						},
						"top_left": {
							"type": "quarterTile",
							"value": {}
						},
						"bottom_left": {
							"type": "quarterTile",
							"value": {}
						}
					}
				}
			},
			"x": 13,
			"y": 1
		},
		{
			"annotations": {
				"constraints": {
					"type": "tile",
					"value": {
						"bottom_right": {
							"type": "quarterTile",
							"value": {}
						},
						"top_right": {
							"type": "quarterTile",
							"value": {}
						},
						"top_left": {
							"type": "quarterTile",
							"value": {}
						},
						"bottom_left": {
							"type": "quarterTile",
							"value": {}
						}
					}
				}
			},
			"x": 14,
			"y": 1
		},
		{
			"annotations": {
				"constraints": {
					"type": "tile",
					"value": {
						"bottom_right": {
							"type": "quarterTile",
							"value": {}
						},
						"top_right": {
							"type": "quarterTile",
							"value": {}
						},
						"top_left": {
							"type": "quarterTile",
							"value": {}
						},
						"bottom_left": {
							"type": "quarterTile",
							"value": {}
						}
					}
				}
			},
			"x": 15,
			"y": 1
		},
		{
			"annotations": {
				"constraints": {
					"type": "tile",
					"value": {
						"bottom_right": {
							"type": "quarterTile",
							"value": {}
						},
						"top_right": {
							"type": "quarterTile",
							"value": {}
						},
						"top_left": {
							"type": "quarterTile",
							"value": {}
						},
						"bottom_left": {
							"type": "quarterTile",
							"value": {}
						}
					}
				}
			},
			"x": 0,
			"y": 2
		},
		{
			"annotations": {
				"constraints": {
					"type": "tile",
					"value": {
						"bottom_right": {
							"type": "quarterTile",
							"value": {}
						},
						"top_right": {
							"type": "quarterTile",
							"value": {}
						},
						"top_left": {
							"type": "quarterTile",
							"value": {}
						},
						"bottom_left": {
							"type": "quarterTile",
							"value": {}
						}
					}
				}
			},
			"x": 1,
			"y": 2
		},
		{
			"annotations": {
				"priority": {
					"type": "Int",
					"value": "1"
				},
				"level": {
					"type": "level",
					"value": "LWall"
				},
				"constraints": {
					"type": "tile",
					"value": {
						"bottom_right": {
							"type": "quarterTile",
							"value": {
								"biome": {
									"type": "biome",
									"value": "Empty"
								}
							}
						},
						"top_right": {
							"type": "quarterTile",
							"value": {
								"biome": {
									"type": "biome",
									"value": "Wall"
								}
							}
						},
						"top_left": {
							"type": "quarterTile",
							"value": {
								"biome": {
									"type": "biome",
									"value": "Empty"
								}
							}
						},
						"bottom_left": {
							"type": "quarterTile",
							"value": {
								"biome": {
									"type": "biome",
									"value": "Empty"
								}
							}
						}
					}
				}
			},
			"x": 2,
			"y": 2
		},
		{
			"annotations": {
				"priority": {
					"type": "Int",
					"value": "2"
				},
				"level": {
					"type": "level",
					"value": "LWall"
				},
				"constraints": {
					"type": "tile",
					"value": {
						"bottom_right": {
							"type": "quarterTile",
							"value": {
								"biome": {
									"type": "biome",
									"value": "Empty"
								}
							}
						},
						"top_right": {
							"type": "quarterTile",
							"value": {
								"biome": {
									"type": "biome",
									"value": "Wall"
								}
							}
						},
						"top_left": {
							"type": "quarterTile",
							"value": {
								"biome": {
									"type": "biome",
									"value": "Wall"
								}
							}
						},
						"bottom_left": {
							"type": "quarterTile",
							"value": {
								"biome": {
									"type": "biome",
									"value": "Empty"
								}
							}
						}
					}
				}
			},
			"x": 3,
			"y": 2
		},
		{
			"annotations": {
				"priority": {
					"type": "Int",
					"value": "1"
				},
				"level": {
					"type": "level",
					"value": "LWall"
				},
				"constraints": {
					"type": "tile",
					"value": {
						"bottom_right": {
							"type": "quarterTile",
							"value": {
								"biome": {
									"type": "biome",
									"value": "Empty"
								}
							}
						},
						"top_right": {
							"type": "quarterTile",
							"value": {
								"biome": {
									"type": "biome",
									"value": "Empty"
								}
							}
						},
						"top_left": {
							"type": "quarterTile",
							"value": {
								"biome": {
									"type": "biome",
									"value": "Wall"
								}
							}
						},
						"bottom_left": {
							"type": "quarterTile",
							"value": {
								"biome": {
									"type": "biome",
									"value": "Empty"
								}
							}
						}
					}
				}
			},
			"x": 4,
			"y": 2
		},
		{
			"annotations": {
				"priority": {
					"type": "Int",
					"value": "4"
				},
				"level": {
					"type": "level",
					"value": "LGrass"
				},
				"constraints": {
					"type": "tile",
					"value": {
						"bottom_right": {
							"type": "quarterTile",
							"value": {
								"biome": {
									"type": "biome",
									"value": "Grass"
								}
							}
						},
						"top_right": {
							"type": "quarterTile",
							"value": {
								"biome": {
									"type": "biome",
									"value": "Grass"
								}
							}
						},
						"top_left": {
							"type": "quarterTile",
							"value": {
								"biome": {
									"type": "biome",
									"value": "Grass"
								}
							}
						},
						"bottom_left": {
							"type": "quarterTile",
							"value": {
								"biome": {
									"type": "biome",
									"value": "Grass"
								}
							}
						}
					}
				}
			},
			"x": 5,
			"y": 2
		},
		{
			"annotations": {
				"constraints": {
					"type": "tile",
					"value": {
						"bottom_right": {
							"type": "quarterTile",
							"value": {}
						},
						"top_right": {
							"type": "quarterTile",
							"value": {}
						},
						"top_left": {
							"type": "quarterTile",
							"value": {}
						},
						"bottom_left": {
							"type": "quarterTile",
							"value": {}
						}
					}
				}
			},
			"x": 6,
			"y": 2
		},
		{
			"annotations": {
				"priority": {
					"type": "Int",
					"value": "1"
				},
				"level": {
					"type": "level",
					"value": "LGrass"
				},
				"constraints": {
					"type": "tile",
					"value": {
						"bottom_right": {
							"type": "quarterTile",
							"value": {
								"biome": {
									"type": "biome",
									"value": "Empty"
								}
							}
						},
						"top_right": {
							"type": "quarterTile",
							"value": {
								"biome": {
									"type": "biome",
									"value": "Grass"
								}
							}
						},
						"top_left": {
							"type": "quarterTile",
							"value": {
								"biome": {
									"type": "biome",
									"value": "Empty"
								}
							}
						},
						"bottom_left": {
							"type": "quarterTile",
							"value": {
								"biome": {
									"type": "biome",
									"value": "Empty"
								}
							}
						}
					}
				}
			},
			"x": 7,
			"y": 2
		},
		{
			"annotations": {
				"priority": {
					"type": "Int",
					"value": "2"
				},
				"level": {
					"type": "level",
					"value": "LGrass"
				},
				"constraints": {
					"type": "tile",
					"value": {
						"bottom_right": {
							"type": "quarterTile",
							"value": {
								"biome": {
									"type": "biome",
									"value": "Empty"
								}
							}
						},
						"top_right": {
							"type": "quarterTile",
							"value": {
								"biome": {
									"type": "biome",
									"value": "Grass"
								}
							}
						},
						"top_left": {
							"type": "quarterTile",
							"value": {
								"biome": {
									"type": "biome",
									"value": "Grass"
								}
							}
						},
						"bottom_left": {
							"type": "quarterTile",
							"value": {
								"biome": {
									"type": "biome",
									"value": "Empty"
								}
							}
						}
					}
				}
			},
			"x": 8,
			"y": 2
		},
		{
			"annotations": {
				"priority": {
					"type": "Int",
					"value": "1"
				},
				"level": {
					"type": "level",
					"value": "LGrass"
				},
				"constraints": {
					"type": "tile",
					"value": {
						"bottom_right": {
							"type": "quarterTile",
							"value": {
								"biome": {
									"type": "biome",
									"value": "Empty"
								}
							}
						},
						"top_right": {
							"type": "quarterTile",
							"value": {
								"biome": {
									"type": "biome",
									"value": "Empty"
								}
							}
						},
						"top_left": {
							"type": "quarterTile",
							"value": {
								"biome": {
									"type": "biome",
									"value": "Grass"
								}
							}
						},
						"bottom_left": {
							"type": "quarterTile",
							"value": {
								"biome": {
									"type": "biome",
									"value": "Empty"
								}
							}
						}
					}
				}
			},
			"x": 9,
			"y": 2
		},
		{
			"annotations": {
				"constraints": {
					"type": "tile",
					"value": {
						"bottom_right": {
							"type": "quarterTile",
							"value": {}
						},
						"top_right": {
							"type": "quarterTile",
							"value": {}
						},
						"top_left": {
							"type": "quarterTile",
							"value": {}
						},
						"bottom_left": {
							"type": "quarterTile",
							"value": {}
						}
					}
				}
			},
			"x": 10,
			"y": 2
		},
		{
			"annotations": {
				"constraints": {
					"type": "tile",
					"value": {
						"bottom_right": {
							"type": "quarterTile",
							"value": {}
						},
						"top_right": {
							"type": "quarterTile",
							"value": {}
						},
						"top_left": {
							"type": "quarterTile",
							"value": {}
						},
						"bottom_left": {
							"type": "quarterTile",
							"value": {}
						}
					}
				}
			},
			"x": 11,
			"y": 2
		},
		{
			"annotations": {
				"constraints": {
					"type": "tile",
					"value": {
						"bottom_right": {
							"type": "quarterTile",
							"value": {}
						},
						"top_right": {
							"type": "quarterTile",
							"value": {}
						},
						"top_left": {
							"type": "quarterTile",
							"value": {}
						},
						"bottom_left": {
							"type": "quarterTile",
							"value": {}
						}
					}
				}
			},
			"x": 12,
			"y": 2
		},
		{
			"annotations": {
				"constraints": {
					"type": "tile",
					"value": {
						"bottom_right": {
							"type": "quarterTile",
							"value": {}
						},
						"top_right": {
							"type": "quarterTile",
							"value": {}
						},
						"top_left": {
							"type": "quarterTile",
							"value": {}
						},
						"bottom_left": {
							"type": "quarterTile",
							"value": {}
						}
					}
				}
			},
			"x": 13,
			"y": 2
		},
		{
			"annotations": {
				"constraints": {
					"type": "tile",
					"value": {
						"bottom_right": {
							"type": "quarterTile",
							"value": {}
						},
						"top_right": {
							"type": "quarterTile",
							"value": {}
						},
						"top_left": {
							"type": "quarterTile",
							"value": {}
						},
						"bottom_left": {
							"type": "quarterTile",
							"value": {}
						}
					}
				}
			},
			"x": 14,
			"y": 2
		},
		{
			"annotations": {
				"constraints": {
					"type": "tile",
					"value": {
						"bottom_right": {
							"type": "quarterTile",
							"value": {}
						},
						"top_right": {
							"type": "quarterTile",
							"value": {}
						},
						"top_left": {
							"type": "quarterTile",
							"value": {}
						},
						"bottom_left": {
							"type": "quarterTile",
							"value": {}
						}
					}
				}
			},
			"x": 15,
			"y": 2
		},
		{
			"annotations": {
				"priority": {
					"type": "Int",
					"value": "1"
				},
				"level": {
					"type": "level",
					"value": "LWallEdge"
				},
				"constraints": {
					"type": "tile",
					"value": {
						"bottom_right": {
							"type": "quarterTile",
							"value": {
								"biome": {
									"type": "biome",
									"value": "Empty"
								}
							}
						},
						"top_right": {
							"type": "quarterTile",
							"value": {
								"biome": {
									"type": "biome",
									"value": "Wall"
								}
							}
						},
						"top_left": {
							"type": "quarterTile",
							"value": {
								"biome": {
									"type": "biome",
									"value": "Empty"
								}
							}
						},
						"bottom_left": {
							"type": "quarterTile",
							"value": {
								"biome": {
									"type": "biome",
									"value": "Empty"
								}
							}
						}
					}
				}
			},
			"x": 0,
			"y": 3
		},
		{
			"annotations": {
				"priority": {
					"type": "Int",
					"value": "2"
				},
				"level": {
					"type": "level",
					"value": "LWallEdge"
				},
				"constraints": {
					"type": "tile",
					"value": {
						"bottom_right": {
							"type": "quarterTile",
							"value": {
								"biome": {
									"type": "biome",
									"value": "Empty"
								}
							}
						},
						"top_right": {
							"type": "quarterTile",
							"value": {
								"biome": {
									"type": "biome",
									"value": "Wall"
								}
							}
						},
						"top_left": {
							"type": "quarterTile",
							"value": {
								"biome": {
									"type": "biome",
									"value": "Wall"
								}
							}
						},
						"bottom_left": {
							"type": "quarterTile",
							"value": {
								"biome": {
									"type": "biome",
									"value": "Empty"
								}
							}
						}
					}
				}
			},
			"x": 1,
			"y": 3
		},
		{
			"annotations": {
				"priority": {
					"type": "Int",
					"value": "1"
				},
				"level": {
					"type": "level",
					"value": "LWallEdge"
				},
				"constraints": {
					"type": "tile",
					"value": {
						"bottom_right": {
							"type": "quarterTile",
							"value": {
								"biome": {
									"type": "biome",
									"value": "Empty"
								}
							}
						},
						"top_right": {
							"type": "quarterTile",
							"value": {
								"biome": {
									"type": "biome",
									"value": "Empty"
								}
							}
						},
						"top_left": {
							"type": "quarterTile",
							"value": {
								"biome": {
									"type": "biome",
									"value": "Wall"
								}
							}
						},
						"bottom_left": {
							"type": "quarterTile",
							"value": {
								"biome": {
									"type": "biome",
									"value": "Empty"
								}
							}
						}
					}
				}
			},
			"x": 2,
			"y": 3
		},
		{
			"annotations": {},
			"x": 3,
			"y": 3
		},
		{
			"annotations": {},
			"x": 4,
			"y": 3
		},
		{
			"annotations": {},
			"x": 5,
			"y": 3
		},
		{
			"annotations": {},
			"x": 6,
			"y": 3
		},
		{
			"annotations": {},
			"x": 7,
			"y": 3
		},
		{
			"annotations": {},
			"x": 8,
			"y": 3
		},
		{
			"annotations": {},
			"x": 9,
			"y": 3
		},
		{
			"annotations": {},
			"x": 10,
			"y": 3
		},
		{
			"annotations": {},
			"x": 11,
			"y": 3
		},
		{
			"annotations": {},
			"x": 12,
			"y": 3
		},
		{
			"annotations": {},
			"x": 13,
			"y": 3
		},
		{
			"annotations": {},
			"x": 14,
			"y": 3
		},
		{
			"annotations": {},
			"x": 15,
			"y": 3
		},
		{
			"annotations": {},
			"x": 0,
			"y": 4
		},
		{
			"annotations": {},
			"x": 1,
			"y": 4
		},
		{
			"annotations": {},
			"x": 2,
			"y": 4
		},
		{
			"annotations": {},
			"x": 3,
			"y": 4
		},
		{
			"annotations": {},
			"x": 4,
			"y": 4
		},
		{
			"annotations": {},
			"x": 5,
			"y": 4
		},
		{
			"annotations": {},
			"x": 6,
			"y": 4
		},
		{
			"annotations": {},
			"x": 7,
			"y": 4
		},
		{
			"annotations": {},
			"x": 8,
			"y": 4
		},
		{
			"annotations": {},
			"x": 9,
			"y": 4
		},
		{
			"annotations": {},
			"x": 10,
			"y": 4
		},
		{
			"annotations": {},
			"x": 11,
			"y": 4
		},
		{
			"annotations": {},
			"x": 12,
			"y": 4
		},
		{
			"annotations": {},
			"x": 13,
			"y": 4
		},
		{
			"annotations": {},
			"x": 14,
			"y": 4
		},
		{
			"annotations": {},
			"x": 15,
			"y": 4
		},
		{
			"annotations": {},
			"x": 0,
			"y": 5
		},
		{
			"annotations": {},
			"x": 1,
			"y": 5
		},
		{
			"annotations": {},
			"x": 2,
			"y": 5
		},
		{
			"annotations": {},
			"x": 3,
			"y": 5
		},
		{
			"annotations": {},
			"x": 4,
			"y": 5
		},
		{
			"annotations": {},
			"x": 5,
			"y": 5
		},
		{
			"annotations": {},
			"x": 6,
			"y": 5
		},
		{
			"annotations": {},
			"x": 7,
			"y": 5
		},
		{
			"annotations": {},
			"x": 8,
			"y": 5
		},
		{
			"annotations": {},
			"x": 9,
			"y": 5
		},
		{
			"annotations": {},
			"x": 10,
			"y": 5
		},
		{
			"annotations": {},
			"x": 11,
			"y": 5
		},
		{
			"annotations": {},
			"x": 12,
			"y": 5
		},
		{
			"annotations": {},
			"x": 13,
			"y": 5
		},
		{
			"annotations": {},
			"x": 14,
			"y": 5
		},
		{
			"annotations": {},
			"x": 15,
			"y": 5
		},
		{
			"annotations": {},
			"x": 0,
			"y": 6
		},
		{
			"annotations": {},
			"x": 1,
			"y": 6
		},
		{
			"annotations": {},
			"x": 2,
			"y": 6
		},
		{
			"annotations": {},
			"x": 3,
			"y": 6
		},
		{
			"annotations": {},
			"x": 4,
			"y": 6
		},
		{
			"annotations": {},
			"x": 5,
			"y": 6
		},
		{
			"annotations": {},
			"x": 6,
			"y": 6
		},
		{
			"annotations": {},
			"x": 7,
			"y": 6
		},
		{
			"annotations": {},
			"x": 8,
			"y": 6
		},
		{
			"annotations": {},
			"x": 9,
			"y": 6
		},
		{
			"annotations": {},
			"x": 10,
			"y": 6
		},
		{
			"annotations": {},
			"x": 11,
			"y": 6
		},
		{
			"annotations": {},
			"x": 12,
			"y": 6
		},
		{
			"annotations": {},
			"x": 13,
			"y": 6
		},
		{
			"annotations": {},
			"x": 14,
			"y": 6
		},
		{
			"annotations": {},
			"x": 15,
			"y": 6
		},
		{
			"annotations": {},
			"x": 0,
			"y": 7
		},
		{
			"annotations": {},
			"x": 1,
			"y": 7
		},
		{
			"annotations": {},
			"x": 2,
			"y": 7
		},
		{
			"annotations": {},
			"x": 3,
			"y": 7
		},
		{
			"annotations": {},
			"x": 4,
			"y": 7
		},
		{
			"annotations": {},
			"x": 5,
			"y": 7
		},
		{
			"annotations": {},
			"x": 6,
			"y": 7
		},
		{
			"annotations": {},
			"x": 7,
			"y": 7
		},
		{
			"annotations": {},
			"x": 8,
			"y": 7
		},
		{
			"annotations": {},
			"x": 9,
			"y": 7
		},
		{
			"annotations": {},
			"x": 10,
			"y": 7
		},
		{
			"annotations": {},
			"x": 11,
			"y": 7
		},
		{
			"annotations": {},
			"x": 12,
			"y": 7
		},
		{
			"annotations": {},
			"x": 13,
			"y": 7
		},
		{
			"annotations": {},
			"x": 14,
			"y": 7
		},
		{
			"annotations": {},
			"x": 15,
			"y": 7
		},
		{
			"annotations": {},
			"x": 0,
			"y": 8
		},
		{
			"annotations": {},
			"x": 1,
			"y": 8
		},
		{
			"annotations": {},
			"x": 2,
			"y": 8
		},
		{
			"annotations": {},
			"x": 3,
			"y": 8
		},
		{
			"annotations": {},
			"x": 4,
			"y": 8
		},
		{
			"annotations": {},
			"x": 5,
			"y": 8
		},
		{
			"annotations": {},
			"x": 6,
			"y": 8
		},
		{
			"annotations": {},
			"x": 7,
			"y": 8
		},
		{
			"annotations": {},
			"x": 8,
			"y": 8
		},
		{
			"annotations": {},
			"x": 9,
			"y": 8
		},
		{
			"annotations": {},
			"x": 10,
			"y": 8
		},
		{
			"annotations": {},
			"x": 11,
			"y": 8
		},
		{
			"annotations": {},
			"x": 12,
			"y": 8
		},
		{
			"annotations": {},
			"x": 13,
			"y": 8
		},
		{
			"annotations": {},
			"x": 14,
			"y": 8
		},
		{
			"annotations": {},
			"x": 15,
			"y": 8
		},
		{
			"annotations": {},
			"x": 0,
			"y": 9
		},
		{
			"annotations": {},
			"x": 1,
			"y": 9
		},
		{
			"annotations": {},
			"x": 2,
			"y": 9
		},
		{
			"annotations": {},
			"x": 3,
			"y": 9
		},
		{
			"annotations": {},
			"x": 4,
			"y": 9
		},
		{
			"annotations": {},
			"x": 5,
			"y": 9
		},
		{
			"annotations": {},
			"x": 6,
			"y": 9
		},
		{
			"annotations": {},
			"x": 7,
			"y": 9
		},
		{
			"annotations": {},
			"x": 8,
			"y": 9
		},
		{
			"annotations": {},
			"x": 9,
			"y": 9
		},
		{
			"annotations": {},
			"x": 10,
			"y": 9
		},
		{
			"annotations": {},
			"x": 11,
			"y": 9
		},
		{
			"annotations": {},
			"x": 12,
			"y": 9
		},
		{
			"annotations": {},
			"x": 13,
			"y": 9
		},
		{
			"annotations": {},
			"x": 14,
			"y": 9
		},
		{
			"annotations": {},
			"x": 15,
			"y": 9
		},
		{
			"annotations": {},
			"x": 0,
			"y": 10
		},
		{
			"annotations": {},
			"x": 1,
			"y": 10
		},
		{
			"annotations": {},
			"x": 2,
			"y": 10
		},
		{
			"annotations": {},
			"x": 3,
			"y": 10
		},
		{
			"annotations": {},
			"x": 4,
			"y": 10
		},
		{
			"annotations": {},
			"x": 5,
			"y": 10
		},
		{
			"annotations": {},
			"x": 6,
			"y": 10
		},
		{
			"annotations": {},
			"x": 7,
			"y": 10
		},
		{
			"annotations": {},
			"x": 8,
			"y": 10
		},
		{
			"annotations": {},
			"x": 9,
			"y": 10
		},
		{
			"annotations": {},
			"x": 10,
			"y": 10
		},
		{
			"annotations": {},
			"x": 11,
			"y": 10
		},
		{
			"annotations": {},
			"x": 12,
			"y": 10
		},
		{
			"annotations": {},
			"x": 13,
			"y": 10
		},
		{
			"annotations": {},
			"x": 14,
			"y": 10
		},
		{
			"annotations": {},
			"x": 15,
			"y": 10
		},
		{
			"annotations": {},
			"x": 0,
			"y": 11
		},
		{
			"annotations": {},
			"x": 1,
			"y": 11
		},
		{
			"annotations": {},
			"x": 2,
			"y": 11
		},
		{
			"annotations": {},
			"x": 3,
			"y": 11
		},
		{
			"annotations": {},
			"x": 4,
			"y": 11
		},
		{
			"annotations": {},
			"x": 5,
			"y": 11
		},
		{
			"annotations": {},
			"x": 6,
			"y": 11
		},
		{
			"annotations": {},
			"x": 7,
			"y": 11
		},
		{
			"annotations": {},
			"x": 8,
			"y": 11
		},
		{
			"annotations": {},
			"x": 9,
			"y": 11
		},
		{
			"annotations": {},
			"x": 10,
			"y": 11
		},
		{
			"annotations": {},
			"x": 11,
			"y": 11
		},
		{
			"annotations": {},
			"x": 12,
			"y": 11
		},
		{
			"annotations": {},
			"x": 13,
			"y": 11
		},
		{
			"annotations": {},
			"x": 14,
			"y": 11
		},
		{
			"annotations": {},
			"x": 15,
			"y": 11
		},
		{
			"annotations": {},
			"x": 0,
			"y": 12
		},
		{
			"annotations": {},
			"x": 1,
			"y": 12
		},
		{
			"annotations": {},
			"x": 2,
			"y": 12
		},
		{
			"annotations": {},
			"x": 3,
			"y": 12
		},
		{
			"annotations": {},
			"x": 4,
			"y": 12
		},
		{
			"annotations": {},
			"x": 5,
			"y": 12
		},
		{
			"annotations": {},
			"x": 6,
			"y": 12
		},
		{
			"annotations": {},
			"x": 7,
			"y": 12
		},
		{
			"annotations": {},
			"x": 8,
			"y": 12
		},
		{
			"annotations": {},
			"x": 9,
			"y": 12
		},
		{
			"annotations": {},
			"x": 10,
			"y": 12
		},
		{
			"annotations": {},
			"x": 11,
			"y": 12
		},
		{
			"annotations": {},
			"x": 12,
			"y": 12
		},
		{
			"annotations": {},
			"x": 13,
			"y": 12
		},
		{
			"annotations": {},
			"x": 14,
			"y": 12
		},
		{
			"annotations": {},
			"x": 15,
			"y": 12
		},
		{
			"annotations": {},
			"x": 0,
			"y": 13
		},
		{
			"annotations": {},
			"x": 1,
			"y": 13
		},
		{
			"annotations": {},
			"x": 2,
			"y": 13
		},
		{
			"annotations": {},
			"x": 3,
			"y": 13
		},
		{
			"annotations": {},
			"x": 4,
			"y": 13
		},
		{
			"annotations": {},
			"x": 5,
			"y": 13
		},
		{
			"annotations": {},
			"x": 6,
			"y": 13
		},
		{
			"annotations": {},
			"x": 7,
			"y": 13
		},
		{
			"annotations": {},
			"x": 8,
			"y": 13
		},
		{
			"annotations": {},
			"x": 9,
			"y": 13
		},
		{
			"annotations": {},
			"x": 10,
			"y": 13
		},
		{
			"annotations": {},
			"x": 11,
			"y": 13
		},
		{
			"annotations": {},
			"x": 12,
			"y": 13
		},
		{
			"annotations": {},
			"x": 13,
			"y": 13
		},
		{
			"annotations": {},
			"x": 14,
			"y": 13
		},
		{
			"annotations": {},
			"x": 15,
			"y": 13
		},
		{
			"annotations": {},
			"x": 0,
			"y": 14
		},
		{
			"annotations": {},
			"x": 1,
			"y": 14
		},
		{
			"annotations": {},
			"x": 2,
			"y": 14
		},
		{
			"annotations": {},
			"x": 3,
			"y": 14
		},
		{
			"annotations": {},
			"x": 4,
			"y": 14
		},
		{
			"annotations": {},
			"x": 5,
			"y": 14
		},
		{
			"annotations": {},
			"x": 6,
			"y": 14
		},
		{
			"annotations": {},
			"x": 7,
			"y": 14
		},
		{
			"annotations": {},
			"x": 8,
			"y": 14
		},
		{
			"annotations": {},
			"x": 9,
			"y": 14
		},
		{
			"annotations": {},
			"x": 10,
			"y": 14
		},
		{
			"annotations": {},
			"x": 11,
			"y": 14
		},
		{
			"annotations": {},
			"x": 12,
			"y": 14
		},
		{
			"annotations": {},
			"x": 13,
			"y": 14
		},
		{
			"annotations": {},
			"x": 14,
			"y": 14
		},
		{
			"annotations": {},
			"x": 15,
			"y": 14
		},
		{
			"annotations": {},
			"x": 0,
			"y": 15
		},
		{
			"annotations": {},
			"x": 1,
			"y": 15
		},
		{
			"annotations": {},
			"x": 2,
			"y": 15
		},
		{
			"annotations": {},
			"x": 3,
			"y": 15
		},
		{
			"annotations": {},
			"x": 4,
			"y": 15
		},
		{
			"annotations": {},
			"x": 5,
			"y": 15
		},
		{
			"annotations": {},
			"x": 6,
			"y": 15
		},
		{
			"annotations": {},
			"x": 7,
			"y": 15
		},
		{
			"annotations": {},
			"x": 8,
			"y": 15
		},
		{
			"annotations": {},
			"x": 9,
			"y": 15
		},
		{
			"annotations": {},
			"x": 10,
			"y": 15
		},
		{
			"annotations": {},
			"x": 11,
			"y": 15
		},
		{
			"annotations": {},
			"x": 12,
			"y": 15
		},
		{
			"annotations": {
				"priority": {
					"type": "Int",
					"value": "0"
				},
				"level": {
					"type": "level",
					"value": "LGrass"
				},
				"constraints": {
					"type": "tile",
					"value": {
						"bottom_right": {
							"type": "quarterTile",
							"value": {
								"biome": {
									"type": "biome",
									"value": "Empty"
								}
							}
						},
						"top_right": {
							"type": "quarterTile",
							"value": {
								"biome": {
									"type": "biome",
									"value": "Empty"
								}
							}
						},
						"top_left": {
							"type": "quarterTile",
							"value": {
								"biome": {
									"type": "biome",
									"value": "Empty"
								}
							}
						},
						"bottom_left": {
							"type": "quarterTile",
							"value": {
								"biome": {
									"type": "biome",
									"value": "Empty"
								}
							}
						}
					}
				}
			},
			"x": 13,
			"y": 15
		},
		{
			"annotations": {
				"priority": {
					"type": "Int",
					"value": "0"
				},
				"level": {
					"type": "level",
					"value": "LWallEdge"
				},
				"constraints": {
					"type": "tile",
					"value": {
						"bottom_right": {
							"type": "quarterTile",
							"value": {
								"biome": {
									"type": "biome",
									"value": "Empty"
								}
							}
						},
						"top_right": {
							"type": "quarterTile",
							"value": {
								"biome": {
									"type": "biome",
									"value": "Empty"
								}
							}
						},
						"top_left": {
							"type": "quarterTile",
							"value": {
								"biome": {
									"type": "biome",
									"value": "Empty"
								}
							}
						},
						"bottom_left": {
							"type": "quarterTile",
							"value": {
								"biome": {
									"type": "biome",
									"value": "Empty"
								}
							}
						}
					}
				}
			},
			"x": 14,
			"y": 15
		},
		{
			"annotations": {
				"priority": {
					"type": "Int",
					"value": "0"
				},
				"level": {
					"type": "level",
					"value": "LWall"
				},
				"constraints": {
					"type": "tile",
					"value": {
						"bottom_right": {
							"type": "quarterTile",
							"value": {
								"biome": {
									"type": "biome",
									"value": "Empty"
								}
							}
						},
						"top_right": {
							"type": "quarterTile",
							"value": {
								"biome": {
									"type": "biome",
									"value": "Empty"
								}
							}
						},
						"top_left": {
							"type": "quarterTile",
							"value": {
								"biome": {
									"type": "biome",
									"value": "Empty"
								}
							}
						},
						"bottom_left": {
							"type": "quarterTile",
							"value": {
								"biome": {
									"type": "biome",
									"value": "Empty"
								}
							}
						}
					}
				}
			},
			"x": 15,
			"y": 15
		}
	],
	"types": {
		"enums": {
			"level": [
				"LWall",
				"LWallEdge",
				"LGrass"
			],
			"biome": [
				"Empty",
				"Wall",
				"Grass"
			]
		},
		"records": {
			"tile": {
				"bottom_right": "quarterTile",
				"top_right": "quarterTile",
				"top_left": "quarterTile",
				"bottom_left": "quarterTile"
			},
			"quarterTile": {
				"biome": "biome"
			}
		}
	}
}